module gitlab.com/jakkar/sporing

go 1.17

require (
	github.com/atomicgo/cursor v0.0.1 // indirect
	github.com/gookit/color v1.4.2 // indirect
	github.com/mattn/go-runewidth v0.0.13 // indirect
	github.com/pterm/pterm v0.12.33 // indirect
	github.com/rivo/uniseg v0.2.0 // indirect
	github.com/xo/terminfo v0.0.0-20210125001918-ca9a967f8778 // indirect
	golang.org/x/sys v0.0.0-20211013075003-97ac67df715c // indirect
	golang.org/x/term v0.0.0-20210927222741-03fcf44c2211 // indirect
)
